<svg xmlns="http://www.w3.org/2000/svg" width="110" height="107" viewBox="0 0 110 107">
    <g fill="none" fill-rule="evenodd">
        <path fill="#344154" d="M82.18 106.953a1.299 1.299 0 0 1-1.236-1.698c.963-2.983 1.046-7.012.228-11.055a4.75 4.75 0 0 0-3.502-3.643 23.551 23.551 0 0 0-6.057-.694c-.761.012-1.516.06-2.315.112-1.454.093-2.958.189-4.481.049-3.194-.295-5.667-1.628-6.963-3.755-.852-1.398-1.575-3.79-.178-7.25.783-1.782.152-2.883-.58-4.157a41.223 41.223 0 0 1-.225-.396c-1.88-3.372-.688-5.364.182-6.82.46-.767.823-1.373.837-2.147.012-.63-.52-1.162-1.239-1.239-2.13-.226-4.108-1.128-5.43-2.474-1.318-1.342-1.543-3.41-.547-5.032l1.35-2.192c5.989-9.717 5.989-9.717 7.475-20.367.297-2.123.666-4.766 1.149-7.959 1.09-7.22 5.482-14.096 12.048-18.868 6.328-4.599 17.696-9.447 35.92-6.434a1.298 1.298 0 0 1-.424 2.562C90.854.63 80.15 5.162 74.222 9.468c-6.007 4.367-10.019 10.619-11.007 17.156-.48 3.179-.848 5.813-1.144 7.93-1.547 11.086-1.62 11.286-7.837 21.37l-1.348 2.19c-.364.592-.286 1.371.187 1.852.894.911 2.334 1.55 3.852 1.713 2.066.218 3.598 1.881 3.561 3.867-.027 1.466-.652 2.512-1.204 3.435-.806 1.346-1.293 2.159-.143 4.22.068.122.138.244.21.369.85 1.482 2.015 3.512.72 6.458-.771 1.91-.776 3.614.002 4.89.858 1.407 2.629 2.303 4.984 2.52 1.323.122 2.66.036 4.077-.055.794-.05 1.616-.103 2.439-.117a26.107 26.107 0 0 1 6.725.77c2.737.681 4.865 2.898 5.422 5.65.916 4.53.81 8.923-.302 12.367-.178.55-.687.9-1.236.9M14.375 54.41a1.298 1.298 0 0 1-1.298-1.299V35.412a1.298 1.298 0 1 1 2.596 0v17.7c0 .716-.58 1.298-1.298 1.298M33.062 54.41a1.298 1.298 0 0 1-1.298-1.299V29.468c0-2.228-.922-4.41-2.53-5.988-1.551-1.522-3.56-2.34-5.67-2.3-4.35.08-7.89 3.69-7.89 8.043v1.62a1.298 1.298 0 1 1-2.598 0v-1.62c0-5.759 4.684-10.532 10.44-10.64 2.807-.056 5.484 1.03 7.538 3.044a11.06 11.06 0 0 1 3.307 7.833v23.651c0 .717-.582 1.299-1.299 1.299"/>
        <path fill="#344154" d="M23.719 21.178a1.298 1.298 0 0 1-1.299-1.298V1.302a1.298 1.298 0 1 1 2.597 0V19.88c0 .717-.581 1.298-1.298 1.298M14.148 54.41c-.547 0-1.048.225-1.411.633-.364.41-.529.934-.465 1.477l1.983 16.78c.2 1.91 1.835 3.337 3.806 3.337h11.315c1.971 0 3.607-1.427 3.804-3.32l1.985-16.797a1.867 1.867 0 0 0-.464-1.477 1.865 1.865 0 0 0-1.412-.633H14.148zm15.228 24.824H18.061c-3.304 0-6.051-2.428-6.387-5.647l-1.98-16.763a4.488 4.488 0 0 1 4.454-5.011h19.141a4.489 4.489 0 0 1 4.455 5.011l-1.983 16.78c-.334 3.202-3.08 5.63-6.385 5.63zM33.062 36.71H1.3A1.298 1.298 0 0 1 0 35.412V1.302a1.298 1.298 0 1 1 2.597 0v32.812h30.465a1.298 1.298 0 1 1 0 2.596M23.719 94.573a1.298 1.298 0 0 1-1.299-1.298v-7.532a1.298 1.298 0 1 1 2.597 0v7.532c0 .717-.581 1.298-1.298 1.298M15.161 93.94a1.298 1.298 0 0 1-1.188-1.82l3.022-6.898a1.298 1.298 0 1 1 2.378 1.042l-3.022 6.899c-.214.487-.69.777-1.19.777M32.276 93.94c-.5 0-.976-.29-1.19-.778l-3.022-6.898a1.298 1.298 0 1 1 2.379-1.042l3.022 6.898a1.298 1.298 0 0 1-1.189 1.82"/>
        <path fill="#7D71D1" d="M23.719 67.455c-2.282 0-4.44-.477-6.388-1.31l.78 6.595 5.608.002h5.608l.779-6.598a16.192 16.192 0 0 1-6.387 1.311"/>
    </g>
</svg>
