<?xml version="1.0" encoding="UTF-8"?>
<svg width="80px" height="62px" viewBox="0 0 80 62" version="1.1" xmlns="http://www.w3.org/2000/svg" xmlns:xlink="http://www.w3.org/1999/xlink">
    <!-- Generator: Sketch 63.1 (92452) - https://sketch.com -->
    <title>ico_02</title>
    <desc>Created with Sketch.</desc>
    <defs>
        <polygon id="path-1" points="0 61.2242759 79.9332414 61.2242759 79.9332414 -7.84047157e-15 0 -7.84047157e-15"></polygon>
    </defs>
    <g id="Page-1" stroke="none" stroke-width="1" fill="none" fill-rule="evenodd">
        <g id="sub_landing_cloudAPI" transform="translate(-229.000000, -555.000000)">
            <g id="ico_02" transform="translate(229.000000, 555.000000)">
                <path d="M70.9588966,38.2501517 C70.8093793,37.5362207 70.3409655,36.9971862 69.7594483,36.8708414 L67.0416552,36.2788414 C67.0416552,36.2788414 65.5503448,37.7006345 63.8096552,37.9362207 C62.0684138,37.7006345 60.5771034,36.2788414 60.5771034,36.2788414 L57.8587586,36.8708414 C57.2777931,36.9971862 56.8093793,37.5362207 56.6593103,38.2501517 L56.0673103,41.075531 L63.8096552,41.075531 L71.5514483,41.075531 L70.9588966,38.2501517 Z" id="Fill-1" fill="#5E4DF8"></path>
                <path d="M67.2412138,32.0039172 C67.2412138,34.0574345 65.7046621,35.7219862 63.8094897,35.7219862 C61.9143172,35.7219862 60.3772138,34.0574345 60.3772138,32.0039172 C60.3772138,29.9504 61.9143172,28.2858483 63.8094897,28.2858483 C65.7046621,28.2858483 67.2412138,29.9504 67.2412138,32.0039172" id="Fill-3" fill="#5E4DF8"></path>
                <path d="M70.4944552,12.2969931 L57.1256276,12.2969931 C57.3728,9.97533793 57.5692138,7.37726897 57.5692138,4.9232 L70.0464552,4.9232 C70.0464552,7.37726897 70.2423172,9.97533793 70.4944552,12.2969931" id="Fill-5" fill="#5E4DF8"></path>
                <path d="M57.1253517,53.1421241 L70.4941793,53.1421241 C70.2464552,55.4637793 70.0505931,58.0618483 70.0505931,60.5159172 L57.5733517,60.5159172 C57.5733517,58.0618483 57.3769379,55.4637793 57.1253517,53.1421241" id="Fill-7" fill="#5E4DF8"></path>
                <path d="M53.3613793,20.4944552 C53.0077241,20.4944552 52.7208276,20.7819034 52.7208276,21.1350069 L52.7208276,44.1849379 C52.7208276,44.5380414 53.0077241,44.8254897 53.3613793,44.8254897 L74.2573793,44.8254897 C74.6104828,44.8254897 74.8973793,44.5380414 74.8973793,44.1849379 L74.8973793,21.1344552 C74.8973793,20.7819034 74.6104828,20.4944552 74.2573793,20.4944552 L53.3613793,20.4944552 Z M74.2573793,46.4806621 L53.3613793,46.4806621 C52.0951724,46.4806621 51.0656552,45.4505931 51.0656552,44.1849379 L51.0656552,21.1350069 C51.0656552,19.8688 52.0951724,18.8392828 53.3613793,18.8392828 L74.2573793,18.8392828 C75.5230345,18.8392828 76.5525517,19.8688 76.5525517,21.1344552 L76.5525517,44.1849379 C76.5525517,45.4505931 75.5230345,46.4806621 74.2573793,46.4806621 L74.2573793,46.4806621 Z" id="Fill-9" fill="#344154"></path>
                <path d="M75.7250759,25.072331 L51.8933517,25.072331 C51.4365241,25.072331 51.0657655,24.7021241 51.0657655,24.2447448 C51.0657655,23.7873655 51.4365241,23.4171586 51.8933517,23.4171586 L75.7250759,23.4171586 C76.1819034,23.4171586 76.5526621,23.7873655 76.5526621,24.2447448 C76.5526621,24.7021241 76.1819034,25.072331 75.7250759,25.072331" id="Fill-11" fill="#344154"></path>
                <path d="M75.7250759,41.9028966 L51.8933517,41.9028966 C51.4365241,41.9028966 51.0657655,41.5326897 51.0657655,41.0753103 C51.0657655,40.617931 51.4365241,40.2477241 51.8933517,40.2477241 L75.7250759,40.2477241 C76.1819034,40.2477241 76.5526621,40.617931 76.5526621,41.0753103 C76.5526621,41.5326897 76.1819034,41.9028966 75.7250759,41.9028966" id="Fill-13" fill="#344154"></path>
                <path d="M76.5526621,35.0755862 L77.8525241,35.0755862 C78.0870069,35.0755862 78.2779034,34.8846897 78.2779034,34.6502069 L78.2779034,30.670069 C78.2779034,30.4350345 78.0870069,30.2446897 77.8525241,30.2446897 L76.5526621,30.2446897 L76.5526621,35.0755862 Z M77.8525241,36.7307586 L75.7250759,36.7307586 C75.2682483,36.7307586 74.8974897,36.3605517 74.8974897,35.9031724 L74.8974897,29.4171034 C74.8974897,28.9597241 75.2682483,28.5895172 75.7250759,28.5895172 L77.8525241,28.5895172 C79.0001103,28.5895172 79.9330759,29.5230345 79.9330759,30.670069 L79.9330759,34.6502069 C79.9330759,35.7972414 79.0001103,36.7307586 77.8525241,36.7307586 L77.8525241,36.7307586 Z" id="Fill-15" fill="#344154"></path>
                <path d="M57.0531862,18.8392828 L70.5654621,18.8392828 C70.187531,16.6070069 69.3152552,10.9441103 69.2269793,5.75073103 L58.391669,5.75073103 C58.3039448,10.9441103 57.431669,16.6070069 57.0531862,18.8392828 M71.5513931,20.4944552 L56.0672552,20.4944552 C55.8211862,20.4944552 55.5872552,20.3846621 55.4300138,20.194869 C55.2722207,20.0050759 55.2082207,19.7551448 55.2540138,19.5129379 C55.2694621,19.4340414 56.7431172,11.5763862 56.7431172,4.92314483 C56.7431172,4.46631724 57.1138759,4.09555862 57.5707034,4.09555862 L70.0479448,4.09555862 C70.5047724,4.09555862 70.875531,4.46631724 70.875531,4.92314483 C70.875531,11.5763862 72.3497379,19.4340414 72.3646345,19.5129379 C72.4104276,19.7551448 72.3464276,20.0050759 72.1891862,20.194869 C72.0313931,20.3846621 71.7980138,20.4944552 71.5513931,20.4944552" id="Fill-17" fill="#344154"></path>
                <path d="M58.3915586,59.5691034 L69.2274207,59.5691034 C69.3151448,54.3757241 70.1874207,48.7128276 70.5653517,46.4805517 L57.0530759,46.4805517 C57.4315586,48.7128276 58.3038345,54.3757241 58.3915586,59.5691034 M70.0478345,61.2242759 L57.5711448,61.2242759 C57.1143172,61.2242759 56.7435586,60.854069 56.7435586,60.3966897 C56.7435586,53.7390345 55.2693517,45.8857931 55.2539034,45.8068966 C55.2081103,45.5646897 55.2726621,45.3147586 55.4299034,45.1249655 C55.5871448,44.9351724 55.8210759,44.8253793 56.0671448,44.8253793 L71.5518345,44.8253793 C71.7979034,44.8253793 72.0318345,44.9351724 72.1890759,45.1249655 C72.3463172,45.3147586 72.4103172,45.5646897 72.3645241,45.8068966 C72.3496276,45.8857931 70.8754207,53.7428966 70.8754207,60.3966897 C70.8754207,60.854069 70.5046621,61.2242759 70.0478345,61.2242759" id="Fill-19" fill="#344154"></path>
                <path d="M0.827972414,25.9844966 C0.576937931,25.9844966 0.328662069,25.8702897 0.166455172,25.6545655 C-0.108303448,25.2893241 -0.0349241379,24.7701517 0.330317241,24.4953931 L32.6657655,0.166565517 C32.9598345,-0.0552275862 33.3664552,-0.0552275862 33.6605241,0.166565517 L56.5642483,17.3991172 C56.9300414,17.6738759 57.002869,18.1924966 56.7281103,18.5582897 C56.4539034,18.923531 55.9330759,18.9958069 55.5700414,18.7216 L33.162869,1.86311724 L1.32452414,25.8184276 C1.17611034,25.9304276 1.00121379,25.9844966 0.827972414,25.9844966" id="Fill-21" fill="#344154"></path>
                <path d="M6.89423448,61.2215724 C6.4374069,61.2215724 6.06664828,60.8513655 6.06664828,60.3939862 L6.06664828,20.5926069 C6.06664828,20.1352276 6.4374069,19.7650207 6.89423448,19.7650207 C7.35106207,19.7650207 7.72182069,20.1352276 7.72182069,20.5926069 L7.72182069,60.3939862 C7.72182069,60.8513655 7.35106207,61.2215724 6.89423448,61.2215724" id="Fill-23" fill="#344154"></path>
                <mask id="mask-2" fill="white">
                    <use xlink:href="#path-1"></use>
                </mask>
                <g id="Clip-26"></g>
                <path d="M24.9511724,46.3663448 L41.3748966,46.3663448 L41.3748966,29.9426207 L24.9511724,29.9426207 L24.9511724,46.3663448 Z M23.296,48.0215172 L43.030069,48.0215172 L43.030069,28.2874483 L23.296,28.2874483 L23.296,48.0215172 Z" id="Fill-25" fill="#344154" mask="url(#mask-2)"></path>
                <path d="M33.1630897,38.982069 C32.7062621,38.982069 32.3355034,38.6118621 32.3355034,38.1544828 L32.3355034,29.1150345 C32.3355034,28.6582069 32.7062621,28.2874483 33.1630897,28.2874483 C33.6199172,28.2874483 33.9906759,28.6582069 33.9906759,29.1150345 L33.9906759,38.1544828 C33.9906759,38.6118621 33.6199172,38.982069 33.1630897,38.982069" id="Fill-27" fill="#344154" mask="url(#mask-2)"></path>
                <path d="M42.2024276,39.1089655 L24.123531,39.1089655 C23.6667034,39.1089655 23.2959448,38.7387586 23.2959448,38.2813793 C23.2959448,37.824 23.6667034,37.4537931 24.123531,37.4537931 L42.2024276,37.4537931 C42.6592552,37.4537931 43.0300138,37.824 43.0300138,38.2813793 C43.0300138,38.7387586 42.6592552,39.1089655 42.2024276,39.1089655" id="Fill-28" fill="#344154" mask="url(#mask-2)"></path>
                <path d="M57.573131,61.2215724 L6.89451034,61.2215724 C6.43713103,61.2215724 6.06692414,60.8513655 6.06692414,60.3939862 C6.06692414,59.9366069 6.43713103,59.5664 6.89451034,59.5664 L57.573131,59.5664 C58.0299586,59.5664 58.4007172,59.9366069 58.4007172,60.3939862 C58.4007172,60.8513655 58.0299586,61.2215724 57.573131,61.2215724" id="Fill-29" fill="#344154" mask="url(#mask-2)"></path>
                <path d="M20.8091034,19.1103448 C20.558069,19.1103448 20.3097931,18.9961379 20.1475862,18.7804138 C19.8728276,18.4151724 19.9462069,17.896 20.3114483,17.6212414 L32.6656552,8.3257931 C32.9597241,8.10455172 33.3663448,8.10455172 33.6604138,8.3257931 L46.0157241,17.6212414 C46.3809655,17.896 46.4537931,18.4151724 46.1790345,18.7804138 C45.9048276,19.1451034 45.384,19.217931 45.0209655,18.9442759 L33.1633103,10.0228966 L21.3056552,18.9442759 C21.1572414,19.0562759 20.9823448,19.1103448 20.8091034,19.1103448" id="Fill-30" fill="#344154" mask="url(#mask-2)"></path>
            </g>
        </g>
    </g>
</svg>