<svg xmlns="http://www.w3.org/2000/svg" width="15" height="37" viewBox="0 0 15 37">
    <path fill="none" fill-rule="evenodd" stroke="#FFF" stroke-dasharray="2,2" stroke-width="2" d="M1 1l12 17.996L1 36.992"/>
</svg>
