<svg xmlns="http://www.w3.org/2000/svg" width="351" height="55" viewBox="0 0 351 55">
    <defs>
        <linearGradient id="a" x1="1.798%" x2="98.028%" y1="50%" y2="50%">
            <stop offset="0%" stop-color="#FB8923"/>
            <stop offset="100%" stop-color="#FFAC37"/>
        </linearGradient>
    </defs>
    <path fill="url(#a)" fill-rule="evenodd" d="M296.001 0c.683 0 1.339.114 1.95.324H298a6 6 0 0 1 2.486.539l46.518 21.176a6 6 0 0 1 0 10.922l-46.518 21.176a5.977 5.977 0 0 1-2.534.54 6.017 6.017 0 0 1-1.95.323H5.998A6 6 0 0 1 0 49.01V5.99A5.99 5.99 0 0 1 5.999 0H296z"/>
</svg>
