<svg xmlns="http://www.w3.org/2000/svg" xmlns:xlink="http://www.w3.org/1999/xlink" width="26" height="27" viewBox="0 0 26 27">
    <defs>
        <path id="prefix__a" d="M0 0L25.864 0 25.864 26.561 0 26.561z"/>
    </defs>
    <g fill="none" fill-rule="evenodd">
        <mask id="prefix__b" fill="#fff">
            <use xlink:href="#prefix__a"/>
        </mask>
        <path fill="#27C4AA" d="M17.523 24.023h.54c1.24 0 1.592-.405 1.592-2.078 0-1.647-.108-3.13-.108-4.94 0-2.402.756-3.293 2.349-3.644v-.135c-1.593-.378-2.35-1.268-2.35-3.644 0-1.862.109-3.347.109-4.967 0-1.673-.351-2.078-1.592-2.078h-.54V0h2.024c2.754 0 3.995 1.08 3.995 4.453 0 2.16-.297 3.213-.297 5.156 0 1.08.648 2.213 2.619 2.268v2.807c-1.971.054-2.62 1.187-2.62 2.267 0 1.944.298 2.996.298 5.183 0 3.347-1.241 4.427-3.995 4.427h-2.024v-2.538zM2.349 22.134c0-2.187.297-3.239.297-5.183 0-1.08-.648-2.213-2.646-2.267v-2.807c1.998-.055 2.646-1.188 2.646-2.268 0-1.943-.297-2.996-.297-5.156C2.349 1.08 3.589 0 6.343 0h2.025v2.537h-.54c-1.27 0-1.593.405-1.593 2.078 0 1.62.108 3.105.108 4.967 0 2.376-.756 3.266-2.348 3.644v.135c1.592.351 2.348 1.242 2.348 3.644 0 1.81-.108 3.293-.108 4.94 0 1.673.324 2.078 1.593 2.078h.54v2.538H6.343c-2.753 0-3.994-1.08-3.994-4.427z" mask="url(#prefix__b)"/>
    </g>
</svg>
